﻿"id","gender","leeftijd","pilotSurvey7","pilotSurvey8","pilotSurvey9","pilotSurvey10","pilotSurvey11","pilotSurvey12","pilotSurvey13","pilotSurvey14","pilotSurvey1","pilotSurvey2","pilotSurvey3","pilotSurvey4","pilotSurvey5","pilotSurvey6","pilotSurvey15","pilotSurvey16","pilotSurvey17","interviewtime"
"11","1","13","4","","4","","4","","","","3","","5","","5","","3","","","760.4"
"12","-oth-","14","5","","4","","5","","","","3","","4","","5","","3","","misschien is een groter lettertype fijn, persoonlijk ben ik dyslectisch en vond ik sommige dingen lastig te lezen. verder was hij perfect","811.07"
"13","1","14","3","","4","","4","","","","3","","5","","4","","3","","","1003.61"
"14","0","13","4","","4","","5","","","","3","","5","","5","","3","","","683.77"
"15","0","14","5","","5","","5","","","","3","","5","","5","","3","","","571.43"
"16","0","14","4","","5","","4","","","","3","","5","","5","","3","","","507"
"17","1","14","5","","5","","5","","","","3","","4","","3","","3","","","743.82"
"18","0","14","5","","5","","5","","","","3","","5","","5","","3","","","976.37"
"19","0","14","5","","4","","4","","","","3","","5","","5","","3","","nee","961.9"
"20","1","13","5","","5","","4","","","","3","","5","","5","","4","","","739.66"
"21","0","13","3","","4","","4","","","","3","","5","","5","","1","5","","876.14"
"22","0","13","4","","4","","4","","","","2","","5","","5","","3","","","943.13"
"23","0","13","4","","4","","5","","","","-oth-","","4","","5","","2","4","nee hoor","991.64"
"24","0","13","4","","4","","5","","","","2","","5","","5","","3","","nee","683.3"
"25","1","13","5","","4","","3","","","","3","","5","","4","","3","","Dat is niet nodig.","883.01"
"26","0","13","4","","3","","3","","","","2","","4","","5","","2","5","foto's","607.24"
"27","","","","","","","","","","","","","","","","","","","","72.78"
"28","0","14","3","","4","","4","","","","3","","4","","5","","3","","sommige vragen kwamen op hetzelfde principe neer.","1136.15"
"29","0","14","5","","5","","5","","","","3","","5","","5","","3","","sommige vragen kwamen gewoon op hetzelfde neer","1009.6"
"30","1","13","4","","4","","4","","","","-oth-","","4","","4","","2","10","kortere vragen","955.64"
"31","1","13","4","","4","","5","","","","3","","5","","4","","4","","","979.47"
"32","1","13","4","","4","","4","","","","3","","4","","4","","2","10","kortere vragen.","930.78"
"33","0","13","4","","4","","5","","","","3","","5","","5","","3","","","950.91"
"34","0","13","4","","4","","5","","","","3","","5","","5","","3","","","991.4"
"35","1","14","4","","4","","5","","","","3","","5","","4","","4","","","904.53"
"36","0","13","4","","4","","4","","","","3","","4","","4","","2","15","iets minder vragen ","673.6"
"37","1","13","4","","4","","4","","","","3","","4","","3","","3","","","523.09"
"38","1","14","4","","4","","4","","","","3","","4","","4","","3","","","549.87"

