<?xml version='1.0' encoding='UTF-8' ?>
<svg xmlns='http://www.w3.org/2000/svg' xmlns:xlink='http://www.w3.org/1999/xlink' class='svglite' width='576.00pt' height='576.00pt' viewBox='0 0 576.00 576.00'>
<defs>
  <style type='text/css'><![CDATA[
    .svglite line, .svglite polyline, .svglite polygon, .svglite path, .svglite rect, .svglite circle {
      fill: none;
      stroke: #000000;
      stroke-linecap: round;
      stroke-linejoin: round;
      stroke-miterlimit: 10.00;
    }
    .svglite text {
      white-space: pre;
    }
  ]]></style>
</defs>
<rect width='100%' height='100%' style='stroke: none; fill: none;'/>
<defs>
  <clipPath id='cpMC4wMHw1NzYuMDB8MC4wMHw1NzYuMDA='>
    <rect x='0.00' y='0.00' width='576.00' height='576.00' />
  </clipPath>
</defs>
<g clip-path='url(#cpMC4wMHw1NzYuMDB8MC4wMHw1NzYuMDA=)'>
</g>
<defs>
  <clipPath id='cpNDIuOTN8NTA4LjcxfDM3LjQzfDU0NC41MA=='>
    <rect x='42.93' y='37.43' width='465.78' height='507.07' />
  </clipPath>
</defs>
<g clip-path='url(#cpNDIuOTN8NTA4LjcxfDM3LjQzfDU0NC41MA==)'>
<polyline points='42.93,477.01 508.71,477.01 ' style='stroke-width: 0.53; stroke: #EBEBEB; stroke-linecap: butt;' />
<polyline points='42.93,350.02 508.71,350.02 ' style='stroke-width: 0.53; stroke: #EBEBEB; stroke-linecap: butt;' />
<polyline points='42.93,223.03 508.71,223.03 ' style='stroke-width: 0.53; stroke: #EBEBEB; stroke-linecap: butt;' />
<polyline points='42.93,96.04 508.71,96.04 ' style='stroke-width: 0.53; stroke: #EBEBEB; stroke-linecap: butt;' />
<polyline points='64.10,544.50 64.10,37.43 ' style='stroke-width: 0.53; stroke: #EBEBEB; stroke-linecap: butt;' />
<polyline points='205.25,544.50 205.25,37.43 ' style='stroke-width: 0.53; stroke: #EBEBEB; stroke-linecap: butt;' />
<polyline points='346.39,544.50 346.39,37.43 ' style='stroke-width: 0.53; stroke: #EBEBEB; stroke-linecap: butt;' />
<polyline points='487.54,544.50 487.54,37.43 ' style='stroke-width: 0.53; stroke: #EBEBEB; stroke-linecap: butt;' />
<polyline points='42.93,540.50 508.71,540.50 ' style='stroke-width: 1.07; stroke: #EBEBEB; stroke-linecap: butt;' />
<polyline points='42.93,413.51 508.71,413.51 ' style='stroke-width: 1.07; stroke: #EBEBEB; stroke-linecap: butt;' />
<polyline points='42.93,286.52 508.71,286.52 ' style='stroke-width: 1.07; stroke: #EBEBEB; stroke-linecap: butt;' />
<polyline points='42.93,159.53 508.71,159.53 ' style='stroke-width: 1.07; stroke: #EBEBEB; stroke-linecap: butt;' />
<polyline points='134.67,544.50 134.67,37.43 ' style='stroke-width: 1.07; stroke: #EBEBEB; stroke-linecap: butt;' />
<polyline points='275.82,544.50 275.82,37.43 ' style='stroke-width: 1.07; stroke: #EBEBEB; stroke-linecap: butt;' />
<polyline points='416.96,544.50 416.96,37.43 ' style='stroke-width: 1.07; stroke: #EBEBEB; stroke-linecap: butt;' />
<polyline points='64.10,60.48 71.16,63.02 78.22,65.56 85.27,68.10 92.33,70.64 99.39,73.18 106.44,75.72 113.50,79.53 120.56,82.07 127.62,85.88 134.67,89.69 141.73,93.50 148.79,97.31 155.85,101.12 162.90,104.93 169.96,110.01 177.02,115.09 184.07,118.90 191.13,123.98 198.19,129.06 205.25,134.14 212.30,139.22 219.36,145.57 226.42,150.64 233.48,156.99 240.53,162.07 247.59,168.42 254.65,174.77 261.70,181.12 268.76,187.47 275.82,193.82 282.88,200.17 289.93,206.52 296.99,212.87 304.05,220.49 311.10,226.84 318.16,234.46 325.22,240.81 332.28,248.43 339.33,254.78 346.39,262.40 353.45,270.02 360.51,277.63 367.56,283.98 374.62,291.60 381.68,299.22 388.73,306.84 395.79,314.46 402.85,320.81 409.91,328.43 416.96,336.05 424.02,343.67 431.08,351.29 438.13,357.64 445.19,365.26 452.25,372.88 459.31,379.23 466.36,386.85 473.42,394.47 480.48,400.81 487.54,407.16 ' style='stroke-width: 4.27; stroke: #440154; stroke-linecap: butt;' />
<polyline points='64.10,327.16 71.16,327.16 78.22,328.43 85.27,329.70 92.33,330.97 99.39,332.24 106.44,333.51 113.50,334.78 120.56,336.05 127.62,337.32 134.67,338.59 141.73,341.13 148.79,342.40 155.85,343.67 162.90,346.21 169.96,347.48 177.02,350.02 184.07,352.56 191.13,353.83 198.19,356.37 205.25,358.91 212.30,361.45 219.36,363.99 226.42,366.53 233.48,369.07 240.53,371.61 247.59,374.15 254.65,376.69 261.70,379.23 268.76,381.77 275.82,384.31 282.88,388.12 289.93,390.66 296.99,393.20 304.05,397.01 311.10,399.54 318.16,402.08 325.22,405.89 332.28,408.43 339.33,412.24 346.39,414.78 353.45,418.59 360.51,421.13 367.56,424.94 374.62,427.48 381.68,431.29 388.73,433.83 395.79,437.64 402.85,440.18 409.91,443.99 416.96,446.53 424.02,450.34 431.08,452.88 438.13,456.69 445.19,459.23 452.25,463.04 459.31,465.58 466.36,469.39 473.42,471.93 480.48,475.74 487.54,478.28 ' style='stroke-width: 4.27; stroke: #3B528B; stroke-linecap: butt;' />
<polyline points='64.10,419.86 71.16,419.86 78.22,421.13 85.27,421.13 92.33,422.40 99.39,422.40 106.44,423.67 113.50,423.67 120.56,424.94 127.62,424.94 134.67,426.21 141.73,427.48 148.79,428.75 155.85,428.75 162.90,430.02 169.96,431.29 177.02,432.56 184.07,433.83 191.13,435.10 198.19,436.37 205.25,437.64 212.30,438.91 219.36,440.18 226.42,441.45 233.48,442.72 240.53,443.99 247.59,445.26 254.65,446.53 261.70,449.07 268.76,450.34 275.82,451.61 282.88,452.88 289.93,455.42 296.99,456.69 304.05,457.96 311.10,459.23 318.16,461.77 325.22,463.04 332.28,464.31 339.33,466.85 346.39,468.12 353.45,470.66 360.51,471.93 367.56,473.20 374.62,475.74 381.68,477.01 388.73,478.28 395.79,480.82 402.85,482.09 409.91,484.63 416.96,485.90 424.02,487.17 431.08,489.71 438.13,490.98 445.19,493.52 452.25,494.79 459.31,496.06 466.36,498.60 473.42,499.87 480.48,501.14 487.54,502.41 ' style='stroke-width: 4.27; stroke: #21908C; stroke-linecap: butt;' />
<polyline points='64.10,463.04 71.16,463.04 78.22,463.04 85.27,463.04 92.33,464.31 99.39,464.31 106.44,464.31 113.50,465.58 120.56,465.58 127.62,466.85 134.67,466.85 141.73,466.85 148.79,468.12 155.85,468.12 162.90,469.39 169.96,469.39 177.02,470.66 184.07,471.93 191.13,471.93 198.19,473.20 205.25,473.20 212.30,474.47 219.36,475.74 226.42,475.74 233.48,477.01 240.53,478.28 247.59,478.28 254.65,479.55 261.70,480.82 268.76,482.09 275.82,482.09 282.88,483.36 289.93,484.63 296.99,485.90 304.05,487.17 311.10,487.17 318.16,488.44 325.22,489.71 332.28,490.98 339.33,492.25 346.39,493.52 353.45,493.52 360.51,494.79 367.56,496.06 374.62,497.33 381.68,498.60 388.73,499.87 395.79,501.14 402.85,501.14 409.91,502.41 416.96,503.68 424.02,504.95 431.08,506.22 438.13,507.49 445.19,508.76 452.25,508.76 459.31,510.03 466.36,511.30 473.42,512.57 480.48,513.84 487.54,513.84 ' style='stroke-width: 4.27; stroke: #5DC863; stroke-linecap: butt;' />
<polyline points='64.10,485.90 71.16,485.90 78.22,485.90 85.27,487.17 92.33,487.17 99.39,487.17 106.44,487.17 113.50,487.17 120.56,488.44 127.62,488.44 134.67,488.44 141.73,489.71 148.79,489.71 155.85,489.71 162.90,490.98 169.96,490.98 177.02,490.98 184.07,492.25 191.13,492.25 198.19,493.52 205.25,493.52 212.30,493.52 219.36,494.79 226.42,494.79 233.48,496.06 240.53,496.06 247.59,497.33 254.65,497.33 261.70,498.60 268.76,498.60 275.82,499.87 282.88,499.87 289.93,501.14 296.99,501.14 304.05,502.41 311.10,502.41 318.16,503.68 325.22,503.68 332.28,504.95 339.33,506.22 346.39,506.22 353.45,507.49 360.51,507.49 367.56,508.76 374.62,508.76 381.68,510.03 388.73,511.30 395.79,511.30 402.85,512.57 409.91,512.57 416.96,513.84 424.02,515.11 431.08,515.11 438.13,516.38 445.19,516.38 452.25,517.65 459.31,517.65 466.36,518.92 473.42,518.92 480.48,520.19 487.54,521.46 ' style='stroke-width: 4.27; stroke: #FDE725; stroke-linecap: butt;' />
</g>
<g clip-path='url(#cpMC4wMHw1NzYuMDB8MC4wMHw1NzYuMDA=)'>
<text x='38.00' y='543.65' text-anchor='end' style='font-size: 8.80px;fill: #4D4D4D; font-family: "Arial";' textLength='4.90px' lengthAdjust='spacingAndGlyphs'>0</text>
<text x='38.00' y='416.66' text-anchor='end' style='font-size: 8.80px;fill: #4D4D4D; font-family: "Arial";' textLength='14.69px' lengthAdjust='spacingAndGlyphs'>500</text>
<text x='38.00' y='289.67' text-anchor='end' style='font-size: 8.80px;fill: #4D4D4D; font-family: "Arial";' textLength='19.58px' lengthAdjust='spacingAndGlyphs'>1000</text>
<text x='38.00' y='162.68' text-anchor='end' style='font-size: 8.80px;fill: #4D4D4D; font-family: "Arial";' textLength='19.58px' lengthAdjust='spacingAndGlyphs'>1500</text>
<text x='134.67' y='555.74' text-anchor='middle' style='font-size: 8.80px;fill: #4D4D4D; font-family: "Arial";' textLength='12.24px' lengthAdjust='spacingAndGlyphs'>0.2</text>
<text x='275.82' y='555.74' text-anchor='middle' style='font-size: 8.80px;fill: #4D4D4D; font-family: "Arial";' textLength='12.24px' lengthAdjust='spacingAndGlyphs'>0.4</text>
<text x='416.96' y='555.74' text-anchor='middle' style='font-size: 8.80px;fill: #4D4D4D; font-family: "Arial";' textLength='12.24px' lengthAdjust='spacingAndGlyphs'>0.6</text>
<text x='275.82' y='568.20' text-anchor='middle' style='font-size: 11.00px; font-family: "Arial";' textLength='106.43px' lengthAdjust='spacingAndGlyphs'>Population correlation</text>
<text transform='translate(13.36,290.97) rotate(-90)' text-anchor='middle' style='font-size: 11.00px; font-family: "Arial";' textLength='127.82px' lengthAdjust='spacingAndGlyphs'>Total required sample size</text>
<text x='525.15' y='248.97' style='font-size: 11.00px; font-family: "Arial";' textLength='7.94px' lengthAdjust='spacingAndGlyphs'>w</text>
<line x1='526.87' y1='264.25' x2='540.70' y2='264.25' style='stroke-width: 4.27; stroke: #440154; stroke-linecap: butt;' />
<line x1='526.87' y1='281.53' x2='540.70' y2='281.53' style='stroke-width: 4.27; stroke: #3B528B; stroke-linecap: butt;' />
<line x1='526.87' y1='298.81' x2='540.70' y2='298.81' style='stroke-width: 4.27; stroke: #21908C; stroke-linecap: butt;' />
<line x1='526.87' y1='316.09' x2='540.70' y2='316.09' style='stroke-width: 4.27; stroke: #5DC863; stroke-linecap: butt;' />
<line x1='526.87' y1='333.37' x2='540.70' y2='333.37' style='stroke-width: 4.27; stroke: #FDE725; stroke-linecap: butt;' />
<text x='547.91' y='267.40' style='font-size: 8.80px; font-family: "Arial";' textLength='12.24px' lengthAdjust='spacingAndGlyphs'>0.1</text>
<text x='547.91' y='284.68' style='font-size: 8.80px; font-family: "Arial";' textLength='17.14px' lengthAdjust='spacingAndGlyphs'>0.15</text>
<text x='547.91' y='301.96' style='font-size: 8.80px; font-family: "Arial";' textLength='12.24px' lengthAdjust='spacingAndGlyphs'>0.2</text>
<text x='547.91' y='319.24' style='font-size: 8.80px; font-family: "Arial";' textLength='17.14px' lengthAdjust='spacingAndGlyphs'>0.25</text>
<text x='547.91' y='336.52' style='font-size: 8.80px; font-family: "Arial";' textLength='12.24px' lengthAdjust='spacingAndGlyphs'>0.3</text>
<text x='42.93' y='14.93' style='font-size: 13.20px; font-family: "Arial";' textLength='186.62px' lengthAdjust='spacingAndGlyphs'>Smallest stage proportion = 0.4,</text>
<text x='42.93' y='29.18' style='font-size: 13.20px; font-family: "Arial";' textLength='178.53px' lengthAdjust='spacingAndGlyphs'>Smallest work proportion = 0.5</text>
</g>
</svg>
